…
    ## See spec(...) for full column specifications.

    ## # A tibble: 204 x 26
    ##      `3` `?`   `alfa-romero` gas   std   two   convertible rwd   front
    ##    <int> <chr> <chr>         <chr> <chr> <chr> <chr>       <chr> <chr>
    ##  1     3 ?     alfa-romero   gas   std   two   convertible rwd   front
    ##  2     1 ?     alfa-romero   gas   std   two   hatchback   rwd   front
    ##  3     2 164   audi          gas   std   four  sedan       fwd   front
    ##  4     2 164   audi          gas   std   four  sedan       4wd   front
    ##  5     2 ?     audi          gas   std   two   sedan       fwd   front
    ##  6     1 158   audi          gas   std   four  sedan       fwd   front
    ##  7     1 ?     audi          gas   std   four  wagon       fwd   front
    ##  8     1 158   audi          gas   turbo four  sedan       fwd   front
    ##  9     0 ?     audi          gas   turbo two   hatchback   4wd   front
    ## 10     2 192   bmw           gas   std   two   sedan       rwd   front
    ## # ... with 194 more rows, and 17 more variables: `88.60` <dbl>, `168.80`
    ## #   <dbl>, `64.10` <dbl>, `48.80` <dbl>, `2548` <int>, dohc <chr>, four
    ## #   <chr>, `130` <int>, mpfi <chr>, `3.47` <chr>, `2.68` <chr>, `9.00`
    ## #   <dbl>, `111` <chr>, `5000` <chr>, `21` <int>, `27` <int>, `13495`
    ## #   <chr>
…
    ##   .default = col_character(),
    ##   symboling = col_integer(),
    ##   wheel_base = col_double(),
    ##   length = col_double(),
    ##   width = col_double(),
    ##   height = col_double(),
    ##   curb_weight = col_integer(),
    ##   engine_size = col_integer(),
    ##   compression_ratio = col_double(),
    ##   city_mpg = col_integer(),
    ##   highway_mpg = col_integer()
    ## )
    ## See spec(...) for full column specifications.

    ## # A tibble: 205 x 26
    ##    symboling normalized_losses make      fuel_type aspiration num_of_doors
    ##        <int> <chr>             <chr>     <chr>     <chr>      <chr>       
    ##  1         3 ?                 alfa-rom~ gas       std        two         
    ##  2         3 ?                 alfa-rom~ gas       std        two         
    ##  3         1 ?                 alfa-rom~ gas       std        two         
    ##  4         2 164               audi      gas       std        four        
    ##  5         2 164               audi      gas       std        four        
    ##  6         2 ?                 audi      gas       std        two         
    ##  7         1 158               audi      gas       std        four        
    ##  8         1 ?                 audi      gas       std        four        
    ##  9         1 158               audi      gas       turbo      four        
    ## 10         0 ?                 audi      gas       turbo      two         
    ## # ... with 195 more rows, and 20 more variables: body_style <chr>,
    ## #   drive_wheels <chr>, engine_location <chr>, wheel_base <dbl>, length
    ## #   <dbl>, width <dbl>, height <dbl>, curb_weight <int>, engine_type
    ## #   <chr>, num_of_cylinders <chr>, engine_size <int>, fuel_system <chr>,
    ## #   bore <chr>, stroke <chr>, compression_ratio <dbl>, horsepower <chr>,
    ## #   peak_rpm <chr>, city_mpg <int>, highway_mpg <int>, price <chr>
…
