…
6.1) dplyr table
----------------

``` r
#tibble with shot_distance and made_shot_prop

dist_prop <- shotsdata %>%
  group_by(shot_distance) %>%
  mutate(made_prop = ((shot_made_flag == 'made shot') / n())) %>%
  summarize(made_shot_prop = sum(made_prop))
dist_prop
```

    ## # A tibble: 56 x 2
    ##    shot_distance made_shot_prop
    ##            <int>          <dbl>
    ##  1             0          0.841
    ##  2             1          0.668
    ##  3             2          0.534
    ##  4             3          0.373
    ##  5             4          0.411
    ##  6             5          0.286
    ##  7             6          0.396
    ##  8             7          0.395
    ##  9             8          0.463
    ## 10             9          0.321
    ## # ... with 46 more rows
…
6.1) dplyr table
----------------

``` r
#tibble with shot_distance and made_shot_prop

dist_prop <- shotsdata %>%
  group_by(shot_distance) %>%
  mutate(made_prop = ((shot_made_flag == 'made shot') / n())) %>%
  summarize(made_shot_prop = sum(made_prop))
dist_prop
```

    ## # A tibble: 56 x 2
    ##    shot_distance made_shot_prop
    ##            <int>          <dbl>
    ##  1             0          0.841
    ##  2             1          0.668
    ##  3             2          0.534
    ##  4             3          0.373
    ##  5             4          0.411
    ##  6             5          0.286
    ##  7             6          0.396
    ##  8             7          0.395
    ##  9             8          0.463
    ## 10             9          0.321
    ## # ... with 46 more rows
…
