lab05-sofia-guo
…
## # A tibble: 2 x 2
##   player             salary
##   <chr>               <dbl>
## 1 Shaun Livingston  5782450
## 2 Stephen Curry    12112359

#name, team, height, weight of 10+ yrs making 10 mill or less
abc <- filter(dat, experience >=10, salary <= 10000000)
abcd <- select(abc, player, team, height, weight)
abcd

## # A tibble: 37 x 4
##    player            team  height weight
##    <chr>             <chr>  <int>  <int>
##  1 Channing Frye     CLE       83    255
##  2 Dahntay Jones     CLE       78    225
##  3 Deron Williams    CLE       75    200
##  4 James Jones       CLE       80    218
##  5 Kyle Korver       CLE       79    212
##  6 Richard Jefferson CLE       79    233
##  7 Jose Calderon     ATL       75    200
##  8 Kris Humphries    ATL       81    235
##  9 Mike Dunleavy     ATL       81    230
## 10 Thabo Sefolosha   ATL       79    220
## # ... with 27 more rows

#name, team, height, weight of rookie players 20 yrs making 10 mill or less
bc <- filter(dat, experience ==0, age ==20, salary <= 10000000)
bcd <- select(abc, player, team, height, weight)
bcd

## # A tibble: 37 x 4
##    player            team  height weight
##    <chr>             <chr>  <int>  <int>
##  1 Channing Frye     CLE       83    255
##  2 Dahntay Jones     CLE       78    225
##  3 Deron Williams    CLE       75    200
##  4 James Jones       CLE       80    218
##  5 Kyle Korver       CLE       79    212
##  6 Richard Jefferson CLE       79    233
##  7 Jose Calderon     ATL       75    200
##  8 Kris Humphries    ATL       81    235
##  9 Mike Dunleavy     ATL       81    230
## 10 Thabo Sefolosha   ATL       79    220
## # ... with 27 more rows
…
#use summarise() to get the standard deviation of points3.
summarize(dat, sd(points3))

## # A tibble: 1 x 1
##   `sd(points3)`
##           <dbl>
## 1          56.0

#use summarise() and group_by() to display the median of three-points, by team.
summarize(group_by(dat, team), threeptmedian = median(points3))

## # A tibble: 30 x 2
##    team  threeptmedian
##    <chr>         <dbl>
##  1 ATL            32.5
##  2 BOS            46.0
##  3 BRK            44.0
##  4 CHI            32.0
##  5 CHO            17.0
##  6 CLE            62.0
##  7 DAL            53.0
##  8 DEN            53.0
##  9 DET            28.0
## 10 GSW            18.0
## # ... with 20 more rows
…
